t,count,max,mean,min,stddev,p50,p75,p95,p98,p99,p999,mean_rate,m1_rate,m5_rate,m15_rate,rate_unit,duration_unit
1451982867,500,11.167363,2.350978,2.167788,0.470604,2.277797,2.398390,2.578317,2.673894,2.751189,11.167363,52.216334,0.000000,0.000000,0.000000,calls/second,milliseconds
1451983027,500,11.440621,2.421051,2.243158,0.428865,2.343866,2.466063,2.695704,2.779092,2.821107,11.440621,26.021201,0.000000,0.000000,0.000000,calls/second,milliseconds
1451983116,500,12.726092,2.431439,2.205313,0.484859,2.357337,2.468308,2.692496,2.865046,2.982753,12.726092,15.844447,0.000000,0.000000,0.000000,calls/second,milliseconds
1451983364,500,10.171829,2.463689,2.278439,0.366597,2.408974,2.516096,2.684478,2.832332,2.862480,10.171829,95.252086,80.200000,80.200000,80.200000,calls/second,milliseconds
1451983380,500,10.597112,2.397077,2.186390,0.465943,2.336810,2.455159,2.596278,2.748622,2.918287,10.597112,80.810162,1.400000,1.400000,1.400000,calls/second,milliseconds
1451983399,500,10.243030,2.438986,2.258232,0.371589,2.380750,2.494608,2.664593,2.785827,2.871461,10.243030,64.972765,0.000000,0.000000,0.000000,calls/second,milliseconds
1451983428,500,11.669941,2.490334,2.278759,0.439307,2.409937,2.542076,2.762735,2.895195,2.983074,11.669941,27.380367,0.000000,0.000000,0.000000,calls/second,milliseconds
1451983485,500,13.469856,2.477405,2.246045,0.513103,2.396466,2.487552,2.769149,2.904495,3.028616,13.469856,10.715083,0.000000,0.000000,0.000000,calls/second,milliseconds
1451983588,500,11.804325,2.396242,2.178692,0.448989,2.323661,2.441047,2.698269,2.828804,3.077688,11.804325,5.574875,0.000000,0.000000,0.000000,calls/second,milliseconds
